20.03.2015 12:57:33 [Thread-2] INFO  by.bsu.multithreading.callcenter.Client  - Client # 13 serviced by operator # 100
20.03.2015 12:57:33 [Thread-8] INFO  by.bsu.multithreading.callcenter.Client  - Client # 19 serviced by operator # 104
20.03.2015 12:57:33 [Thread-4] INFO  by.bsu.multithreading.callcenter.Client  - Client # 15 serviced by operator # 103
20.03.2015 12:57:33 [Thread-0] INFO  by.bsu.multithreading.callcenter.Client  - Client # 11 serviced by operator # 102
20.03.2015 12:57:33 [Thread-6] INFO  by.bsu.multithreading.callcenter.Client  - Client # 17 serviced by operator # 101
20.03.2015 12:57:34 [Thread-2] INFO  by.bsu.multithreading.callcenter.Client  - Client #13 : 100 operator released
20.03.2015 12:57:34 [Thread-7] INFO  by.bsu.multithreading.callcenter.Client  - Client # 18 serviced by operator # 100
20.03.2015 12:57:34 [Thread-6] INFO  by.bsu.multithreading.callcenter.Client  - Client #17 : 101 operator released
20.03.2015 12:57:34 [Thread-5] INFO  by.bsu.multithreading.callcenter.Client  - Client # 16 serviced by operator # 101
20.03.2015 12:57:34 [Thread-4] INFO  by.bsu.multithreading.callcenter.Client  - Client #15 : 103 operator released
20.03.2015 12:57:34 [Thread-8] INFO  by.bsu.multithreading.callcenter.Client  - Client #19 : 104 operator released
20.03.2015 12:57:34 [Thread-0] INFO  by.bsu.multithreading.callcenter.Client  - Client #11 : 102 operator released
20.03.2015 12:57:34 [Thread-3] INFO  by.bsu.multithreading.callcenter.Client  - Client # 14 serviced by operator # 103
20.03.2015 12:57:34 [Thread-9] INFO  by.bsu.multithreading.callcenter.Client  - Client # 20 serviced by operator # 104
20.03.2015 12:57:34 [Thread-1] INFO  by.bsu.multithreading.callcenter.Client  - Client # 12 serviced by operator # 102
20.03.2015 12:57:35 [Thread-7] INFO  by.bsu.multithreading.callcenter.Client  - Client #18 : 100 operator released
20.03.2015 12:57:35 [Thread-5] INFO  by.bsu.multithreading.callcenter.Client  - Client #16 : 101 operator released
20.03.2015 12:57:35 [Thread-3] INFO  by.bsu.multithreading.callcenter.Client  - Client #14 : 103 operator released
20.03.2015 12:57:35 [Thread-9] INFO  by.bsu.multithreading.callcenter.Client  - Client #20 : 104 operator released
20.03.2015 12:57:35 [Thread-1] INFO  by.bsu.multithreading.callcenter.Client  - Client #12 : 102 operator released
